{"data":[{"id":"35","name":"JAWA TIMUR","type":null,"latitude":"-7.53606390","longitude":"112.23840170","country_id":"ID","country_name":"Indonesia","country_name_uppercase":"INDONESIA","province_id":"35","province_name":"JAWA TIMUR","regency_id":null,"regency_name":null,"district_id":null,"district_name":null,"village_id":null,"village_name":null,"full_name":"JAWA TIMUR","name_translated":"JAWA TIMUR","country_name_translated":"Indonesia","country_name_translated_uppercase":"INDONESIA"},{"id":"3501","name":"PACITAN","type":null,"latitude":"-8.12633100","longitude":"111.14142260","country_id":"ID","country_name":"Indonesia","country_name_uppercase":"INDONESIA","province_id":"35","province_name":"JAWA TIMUR","regency_id":"3501","regency_name":"PACITAN","district_id":null,"district_name":null,"village_id":null,"village_name":null,"full_name":"JAWA TIMUR, PACITAN","name_translated":"PACITAN","country_name_translated":"Indonesia","country_name_translated_uppercase":"INDONESIA"},{"id":"3502","name":"PONOROGO","type":null,"latitude":"-7.86507590","longitude":"111.46963220","country_id":"ID","country_name":"Indonesia","country_name_uppercase":"INDONESIA","province_id":"35","province_name":"JAWA TIMUR","regency_id":"3502","regency_name":"PONOROGO","district_id":null,"district_name":null,"village_id":null,"village_name":null,"full_name":"JAWA TIMUR, PONOROGO","name_translated":"PONOROGO","country_name_translated":"Indonesia","country_name_translated_uppercase":"INDONESIA"},{"id":"3503","name":"TRENGGALEK","type":null,"latitude":"-8.18241120","longitude":"111.61837550","country_id":"ID","country_name":"Indonesia","country_name_uppercase":"INDONESIA","province_id":"35","province_name":"JAWA TIMUR","regency_id":"3503","regency_name":"TRENGGALEK","district_id":null,"district_name":null,"village_id":null,"village_name":null,"full_name":"JAWA TIMUR, TRENGGALEK","name_translated":"TRENGGALEK","country_name_translated":"Indonesia","country_name_translated_uppercase":"INDONESIA"},{"id":"3504","name":"TULUNGAGUNG","type":null,"latitude":"-8.09122100","longitude":"111.96417280","country_id":"ID","country_name":"Indonesia","country_name_uppercase":"INDONESIA","province_id":"35","province_name":"JAWA TIMUR","regency_id":"3504","regency_name":"TULUNGAGUNG","district_id":null,"district_name":null,"village_id":null,"village_name":null,"full_name":"JAWA TIMUR, TULUNGAGUNG","name_translated":"TULUNGAGUNG","country_name_translated":"Indonesia","country_name_translated_uppercase":"INDONESIA"},{"id":"3505","name":"BLITAR","type":null,"latitude":"-8.09546270","longitude":"112.16090560","country_id":"ID","country_name":"Indonesia","country_name_uppercase":"INDONESIA","province_id":"35","province_name":"JAWA TIMUR","regency_id":"3505","regency_name":"BLITAR","district_id":null,"district_name":null,"village_id":null,"village_name":null,"full_name":"JAWA TIMUR, BLITAR","name_translated":"BLITAR","country_name_translated":"Indonesia","country_name_translated_uppercase":"INDONESIA"},{"id":"3506","name":"KEDIRI","type":null,"latitude":"-7.84801560","longitude":"112.01782860","country_id":"ID","country_name":"Indonesia","country_name_uppercase":"INDONESIA","province_id":"35","province_name":"JAWA TIMUR","regency_id":"3506","regency_name":"KEDIRI","district_id":null,"district_name":null,"village_id":null,"village_name":null,"full_name":"JAWA TIMUR, KEDIRI","name_translated":"KEDIRI","country_name_translated":"Indonesia","country_name_translated_uppercase":"INDONESIA"},{"id":"3507","name":"MALANG","type":null,"latitude":"-7.96662040","longitude":"112.63263210","country_id":"ID","country_name":"Indonesia","country_name_uppercase":"INDONESIA","province_id":"35","province_name":"JAWA TIMUR","regency_id":"3507","regency_name":"MALANG","district_id":null,"district_name":null,"village_id":null,"village_name":null,"full_name":"JAWA TIMUR, MALANG","name_translated":"MALANG","country_name_translated":"Indonesia","country_name_translated_uppercase":"INDONESIA"},{"id":"3508","name":"LUMAJANG","type":null,"latitude":"-8.09435710","longitude":"113.14415580","country_id":"ID","country_name":"Indonesia","country_name_uppercase":"INDONESIA","province_id":"35","province_name":"JAWA TIMUR","regency_id":"3508","regency_name":"LUMAJANG","district_id":null,"district_name":null,"village_id":null,"village_name":null,"full_name":"JAWA TIMUR, LUMAJANG","name_translated":"LUMAJANG","country_name_translated":"Indonesia","country_name_translated_uppercase":"INDONESIA"},{"id":"3509","name":"JEMBER","type":null,"latitude":"-8.18448590","longitude":"113.66807470","country_id":"ID","country_name":"Indonesia","country_name_uppercase":"INDONESIA","province_id":"35","province_name":"JAWA TIMUR","regency_id":"3509","regency_name":"JEMBER","district_id":null,"district_name":null,"village_id":null,"village_name":null,"full_name":"JAWA TIMUR, JEMBER","name_translated":"JEMBER","country_name_translated":"Indonesia","country_name_translated_uppercase":"INDONESIA"},{"id":"3510","name":"BANYUWANGI","type":null,"latitude":"-8.21923350","longitude":"114.36922670","country_id":"ID","country_name":"Indonesia","country_name_uppercase":"INDONESIA","province_id":"35","province_name":"JAWA TIMUR","regency_id":"3510","regency_name":"BANYUWANGI","district_id":null,"district_name":null,"village_id":null,"village_name":null,"full_name":"JAWA TIMUR, BANYUWANGI","name_translated":"BANYUWANGI","country_name_translated":"Indonesia","country_name_translated_uppercase":"INDONESIA"},{"id":"3511","name":"BONDOWOSO","type":null,"latitude":"-7.96739060","longitude":"113.90606240","country_id":"ID","country_name":"Indonesia","country_name_uppercase":"INDONESIA","province_id":"35","province_name":"JAWA TIMUR","regency_id":"3511","regency_name":"BONDOWOSO","district_id":null,"district_name":null,"village_id":null,"village_name":null,"full_name":"JAWA TIMUR, BONDOWOSO","name_translated":"BONDOWOSO","country_name_translated":"Indonesia","country_name_translated_uppercase":"INDONESIA"},{"id":"3512","name":"SITUBONDO","type":null,"latitude":"-7.70607220","longitude":"114.00513430","country_id":"ID","country_name":"Indonesia","country_name_uppercase":"INDONESIA","province_id":"35","province_name":"JAWA TIMUR","regency_id":"3512","regency_name":"SITUBONDO","district_id":null,"district_name":null,"village_id":null,"village_name":null,"full_name":"JAWA TIMUR, SITUBONDO","name_translated":"SITUBONDO","country_name_translated":"Indonesia","country_name_translated_uppercase":"INDONESIA"},{"id":"3513","name":"PROBOLINGGO","type":null,"latitude":"-7.77642260","longitude":"113.20371310","country_id":"ID","country_name":"Indonesia","country_name_uppercase":"INDONESIA","province_id":"35","province_name":"JAWA TIMUR","regency_id":"3513","regency_name":"PROBOLINGGO","district_id":null,"district_name":null,"village_id":null,"village_name":null,"full_name":"JAWA TIMUR, PROBOLINGGO","name_translated":"PROBOLINGGO","country_name_translated":"Indonesia","country_name_translated_uppercase":"INDONESIA"},{"id":"3514","name":"PASURUAN","type":null,"latitude":"-7.78599610","longitude":"112.85821700","country_id":"ID","country_name":"Indonesia","country_name_uppercase":"INDONESIA","province_id":"35","province_name":"JAWA TIMUR","regency_id":"3514","regency_name":"PASURUAN","district_id":null,"district_name":null,"village_id":null,"village_name":null,"full_name":"JAWA TIMUR, PASURUAN","name_translated":"PASURUAN","country_name_translated":"Indonesia","country_name_translated_uppercase":"INDONESIA"}],"links":{"first":"https:\/\/app.jala.tech\/api\/regions?search=jawa+timur&scope=regency&page=1","last":"https:\/\/app.jala.tech\/api\/regions?search=jawa+timur&scope=regency&page=3","prev":null,"next":"https:\/\/app.jala.tech\/api\/regions?search=jawa+timur&scope=regency&page=2"},"meta":{"current_page":1,"from":1,"last_page":3,"path":"https:\/\/app.jala.tech\/api\/regions","per_page":15,"to":15,"total":39}}
